SDS 366 – Visualizing distributions 1
…
Histograms and density plots in ggplot2

Getting the data

All examples will use the titanic dataset:

titanic <- read_csv("https://wilkelab.org/SDS366/datasets/titanic.csv") |>
  select(age, sex, class, survived)

titanic

# A tibble: 756 × 4
     age sex    class survived
   <dbl> <chr>  <chr> <chr>   
 1 29    female 1st   survived
 2  2    female 1st   died    
 3 30    male   1st   died    
 4 25    female 1st   died    
 5  0.92 male   1st   survived
 6 47    male   1st   survived
 7 63    female 1st   survived
 8 39    male   1st   died    
 9 58    female 1st   survived
10 71    male   1st   died    
# ℹ 746 more rows
…
